team1,team2,won,date
Memphis Grizzlies,LA Lakers,LA Lakers,02/03/2018
Philadelphia 76ers,LA Lakers,Philadelphia 76ers,12/09/2018
Dallas Mavericks,Philadelphia 76ers,Philadelphia 76ers,10/01/2018
Memphis Grizzlies,Brooklyn Nets,Brooklyn Nets,08/11/2018
Milwaukee Bucks,Brooklyn Nets,Milwaukee Bucks,09/05/2018
Dallas Mavericks,Brooklyn Nets,Brooklyn Nets,10/04/2018
Milwaukee Bucks,Philadelphia 76ers,Milwaukee Bucks,09/10/2018
LA Lakers,Philadelphia 76ers,LA Lakers,01/04/2018